{
  "id": "_fr-core-logon",
  "title": "[Core FR] avec Logon compact",
  "description": "<p>Traduction en Français du Core FoundryVTT avec logon compact.</p> <p> *** Rejoignez la communauté Discord FR :<a href=\"https://discord.gg/pPSDNJk\"> https://discord.gg/pPSDNJk </a></p>",
  "version": "12.331.5.1",
  "compatibility": {
    "minimum": "12",
    "verified": "12",
    "maximum": "12"
  },
  "coreTranslation": true,
  "authors": [
    {
      "name": "baktov"
    },
    {
      "name": "DrEygon"
    },
    {
      "name": "Rwanoux"
    },
    {
      "name": "DamonReborn(Naoki)"
    },
    {
      "name": "Galead"
    },
    {
      "name": "U~man"
    },
    {
      "name": "Thorni"
    },
    {
      "name": "deurk"
    },
    {
      "name": "Sasmira"
    },
    {
      "name": "Kristov"
    },
    {
      "name": "Mandar"
    },
    {
      "name": "VincentVk"
    },
    {
      "name": "admiralnlson"
    },
    {
      "name": "Shyning"
    },
    {
      "name": "Kariaudhanaur"
    },
    {
      "name": "Los Brutos"
    },
    {
      "name": "vonv"
    },
    {
      "name": "DjLeChuck"
    }
  ],
  "scripts": [
    "./scripts/bouton-sidebar.js"
  ],
  "styles": [
    "./logon/style.css"
  ],
  "languages": [
    {
      "lang": "fr",
      "name": "Français",
      "path": "fr.json"
    },
    {
      "lang": "fr",
      "path": "tours/backups-overview.json"
    },
    {
      "lang": "fr",
      "path": "tours/canvas-controls.json"
    },
    {
      "lang": "fr",
      "path": "tours/compatibility-preview-overview.json"
    },
    {
      "lang": "fr",
      "path": "tours/creating-a-world.json"
    },
    {
      "lang": "fr",
      "path": "tours/installing-a-system.json"
    },
    {
      "lang": "fr",
      "path": "tours/sidebar.json"
    },
    {
      "lang": "fr",
      "path": "tours/ui-overview.json"
    },
    {
      "lang": "fr",
      "path": "tours/welcome.json"
    }
  ],
  "url": "https://gitlab.com/sasmira/_fr-core-logon",
  "manifest": "https://gitlab.com/sasmira/_fr-core-logon/-/raw/main/module/module.json",
  "download": "https://gitlab.com/sasmira/_fr-core-logon/-/jobs/artifacts/core-12.331.5.1/raw/_fr-core-logon.zip?job=build"
}